<svg width="18" height="12" viewBox="0 0 18 12" fill="none" xmlns="http://www.w3.org/2000/svg">
<path d="M12.75 5.99996C13.9 5.99996 14.825 5.06663 14.825 3.91663C14.825 2.76663 13.9 1.83329 12.75 1.83329C11.6 1.83329 10.6667 2.76663 10.6667 3.91663C10.6667 5.06663 11.6 5.99996 12.75 5.99996ZM6.50002 5.16663C7.88336 5.16663 8.99169 4.04996 8.99169 2.66663C8.99169 1.28329 7.88336 0.166626 6.50002 0.166626C5.11669 0.166626 4.00002 1.28329 4.00002 2.66663C4.00002 4.04996 5.11669 5.16663 6.50002 5.16663ZM12.75 7.66663C11.225 7.66663 8.16669 8.43329 8.16669 9.9583V11C8.16669 11.4583 8.54169 11.8333 9.00002 11.8333H16.5C16.9584 11.8333 17.3334 11.4583 17.3334 11V9.9583C17.3334 8.43329 14.275 7.66663 12.75 7.66663ZM6.50002 6.83329C4.55835 6.83329 0.666687 7.80829 0.666687 9.74996V11C0.666687 11.4583 1.04169 11.8333 1.50002 11.8333H6.50002V9.9583C6.50002 9.24996 6.77502 8.00829 8.47502 7.06663C7.75002 6.91663 7.05002 6.83329 6.50002 6.83329Z" fill="#6E8BB7"/>
</svg>
